{
    "web": {
        "client_id": "70735364590-na0lrm8c3upbi6alkg0kntm3nt9n5uvo.apps.googleusercontent.com",
        "project_id": "auth-with-nodejs",
        "auth_uri": "https://accounts.google.com/o/oauth2/auth",
        "token_uri": "https://oauth2.googleapis.com/token",
        "auth_provider_x509_cert_url": "https://www.googleapis.com/oauth2/v1/certs",
        "client_secret": "OwNMN9r0JzJDSkzbDS5Qlags",
        "redirect_uris": [
            "http://localhost:3080/authenticate/google"
        ],
        "javascript_origins": [
            "http://localhost:3080"
        ]
    }
}